
538176431236

176156073093

354165378181

490192059258

826161756124

312164834986

286162143080

673138690742

690106864341

945186167267

875136529086

572162746479

236121039402

243178528094

495153870512

270123837352

864125917304

310147498621

707168320521

514139548387

212145865237

425127575428

257178050852

217152316471

726145803902

364170854706

725149680710

265154851061

257196538101

819151524605

950190548631

464123921278

149138514204

987197105781

920187217196

964127514675

129128353832

495124815753

676189181937

935103658256

857137385935

793153752850

630198036473

179102193973

107193291032

708148286136

278106543568

296145928631

637120542097

352124172579

672151704367

418181012861

106158691297

739127107045

937170861505

836174971498

168123237424

454176012174

412156540985

806125260517

624138284731

123132169540

817142807285

384159571757

347152942542

283120957645

980165704838

628151570245

304125147314

659171843737

629140525807

189127210679

197152321457

924182152948

437142060301

294180405802

354125957146

813165038987

515173640178

636172505986

493103056928

328127035315

610180746276

390142302349

343123140868

492131012780

504168074370

460152012072

292146437580

912154085873

639173278974

180194924718

387198683795

572142848735

586195248634

354192015410

802174154935

327132081616

962179256721

706129240597

235195168510

218132136392

820171974659

349192316121

403162914746

613128414607

874162579515

804185794840

732197132936

649126731691

983184168487

760147382019

310102905789

798108594354

635192904971

878161830416

865163798187

358126156108

957168141245

979109057365

423185273549

415148643679

393192839652

802197323156

397178947513

256107045141

567148043810

585139385214

149173718901

698109539815

303106264512

854142459216

820176050706

353140809179

296185630497
